              maxt       mint   pcpn
2016-01  61.935484  39.709677   5.73
2016-02  68.310345  43.689655   3.58
2016-03  75.548387  55.806452  10.00
2016-04  79.833333  59.000000   4.74
2016-05  84.774194  64.322581   6.16
2016-06  91.133333  72.966667   7.34
2016-07  93.645161  75.096774   6.64
2016-08  91.645161  74.935484  30.96
2016-09  91.233333  72.100000   2.48
2016-10  86.064516  60.129032   0.61
2016-11  76.400000  50.866667   2.59
2016-12  67.677419  47.833333   9.71
2017-01  69.741935  48.870968   9.68
2017-02  75.250000  53.714286   1.75
2017-03  76.903226  56.064516   3.74
2017-04  82.666667  59.433333   7.40
2017-05  83.032258  62.451613   9.08
2017-06  87.366667  70.966667   9.56
2017-07  91.903226  74.064516   6.44
2017-08  89.612903  73.677419   7.74
2017-09  89.000000  67.366667   0.08
2017-10  81.645161  59.516129   3.62
2017-11  73.966667  50.566667   2.70
2017-12  62.032258  42.967742   5.95
2018-01   0.000000   0.000000   0.00
